<svg width="32" height="32" viewBox="0 0 32 32" fill="none" xmlns="http://www.w3.org/2000/svg">
<path d="M26.6667 22.2041C25.4 22.2041 24.2311 22.6122 23.3156 23.2939L14.1067 17.1755C14.2609 16.3982 14.2609 15.6018 14.1067 14.8245L23.3156 8.70612C24.2311 9.38775 25.4 9.79592 26.6667 9.79592C29.6089 9.79592 32 7.6 32 4.89796C32 2.19592 29.6089 0 26.6667 0C23.7244 0 21.3333 2.19592 21.3333 4.89796C21.3333 5.37143 21.4044 5.82449 21.5422 6.25714L12.7956 12.0735C11.4978 10.4939 9.43556 9.46939 7.11111 9.46939C3.18222 9.46939 0 12.3918 0 16C0 19.6082 3.18222 22.5306 7.11111 22.5306C9.43556 22.5306 11.4978 21.5061 12.7956 19.9265L21.5422 25.7429C21.4044 26.1755 21.3333 26.6327 21.3333 27.102C21.3333 29.8041 23.7244 32 26.6667 32C29.6089 32 32 29.8041 32 27.102C32 24.4 29.6089 22.2041 26.6667 22.2041ZM26.6667 2.77551C27.9422 2.77551 28.9778 3.72653 28.9778 4.89796C28.9778 6.06939 27.9422 7.02041 26.6667 7.02041C25.3911 7.02041 24.3556 6.06939 24.3556 4.89796C24.3556 3.72653 25.3911 2.77551 26.6667 2.77551ZM7.11111 19.5918C4.95556 19.5918 3.2 17.9796 3.2 16C3.2 14.0204 4.95556 12.4082 7.11111 12.4082C9.26667 12.4082 11.0222 14.0204 11.0222 16C11.0222 17.9796 9.26667 19.5918 7.11111 19.5918ZM26.6667 29.2245C25.3911 29.2245 24.3556 28.2735 24.3556 27.102C24.3556 25.9306 25.3911 24.9796 26.6667 24.9796C27.9422 24.9796 28.9778 25.9306 28.9778 27.102C28.9778 28.2735 27.9422 29.2245 26.6667 29.2245Z" fill="var(--cc)"/>
</svg>
